%YAML 1.1
%TAG !u! tag:unity3d.com,2011:
--- !u!1045 &1
EditorBuildSettings:
  m_ObjectHideFlags: 0
  serializedVersion: 2
  m_Scenes:
  - enabled: 1
    path: Assets/[Scenes]/MainMenu.unity
  - enabled: 1
    path: Assets/[Scenes]/Lobby.unity
  - enabled: 1
    path: Assets/[Scenes]/Leaderboards.unity
  - enabled: 1
    path: Assets/[Scenes]/Games.unity
